…
boot_results = bootstraps %>%
  unnest(coefs) %>% 
  select(strap_number, term, estimate, r_squared) %>% 
  pivot_wider(names_from = term, 
              values_from = estimate) %>% 
  mutate(ratio = tmin / prcp) %>% 
  rename(beta_1 = tmin,
         beta_2 = prcp) %>% 
  filter(is.finite(ratio)) %>% 
  print()
```

    ## # A tibble: 5,000 × 6
    ##    strap_number r_squared `(Intercept)` beta_1   beta_2 ratio
    ##           <int>     <dbl>         <dbl>  <dbl>    <dbl> <dbl>
    ##  1            1     0.950          7.59   1.03 -0.00651 -158.
    ##  2            2     0.948          7.47   1.03 -0.00413 -249.
    ##  3            3     0.936          7.89   1.01 -0.00596 -170.
    ##  4            4     0.942          8.05   1.00 -0.00781 -129.
    ##  5            5     0.934          7.78   1.01 -0.00463 -218.
    ##  6            6     0.935          7.88   1.01 -0.00551 -184.
    ##  7            7     0.939          7.88   1.01 -0.00632 -160.
    ##  8            8     0.937          7.80   1.02 -0.00511 -200.
    ##  9            9     0.941          7.84   1.01 -0.00604 -168.
    ## 10           10     0.941          7.84   1.01 -0.00546 -186.
    ## # ℹ 4,990 more rows
…
